^D:\GAME_DEV\START_UE4_1\C++_PROGECT\.VS\DZ_2\DZ_2\DEBUG\DZ_2.OBJ
D:\GAME_DEV\START_UE4_1\C++_PROGECT\.VS\DZ_2\DEBUG\DZ_2.EXE
D:\GAME_DEV\START_UE4_1\C++_PROGECT\.VS\DZ_2\DZ_2\DEBUG\DZ_2.ILK
D:\GAME_DEV\START_UE4_1\C++_PROGECT\.VS\DZ_2\DEBUG\DZ_2.PDB
